N-grams and Word Sequences – Introduction to Text Analysis in R
…
As you can notice, counting words can be useful to explore common terms in a text corpus, but it does not capture the context in which words are used. To gain deeper insights into the relationships between words, we can analyze sequences of words, known as n-grams. N-grams are contiguous sequences of ‘n’ items (words) from a given text. For example, a bigram is a sequence of two words, while a trigram is a sequence of three words.

Creating N-grams

Because creating n-grams involves tokenizing text into sequences of words, we can use the unnest_tokens() function from the tidytext package again, but this time specifying the token argument to create n-grams.

# Creating bigrams (2-grams) from the comments
ngrams <- comments %>%
  unnest_tokens(ngrams, comments, token = "ngrams", n = 2) #bigrams 

ngrams

# A tibble: 67,100 × 3
    ...1 id      ngrams          
   <dbl> <chr>   <chr>           
 1     1 s1_0001 everyone telling
 2     1 s1_0001 telling watch   
 3     1 s1_0001 watch severance 
 4     1 s1_0001 severance nobody
 5     1 s1_0001 nobody tryna    
 6     1 s1_0001 tryna watch     
 7     1 s1_0001 watch apple     
 8     2 s1_0002 can quite       
 9     2 s1_0002 quite explain   
10     2 s1_0002 explain show    
# ℹ 67,090 more rows

The resulting ngrams data frame contains bigrams extracted from the comments. Each row represents a bigram, which consists of two consecutive words from the original text.

By changing the value of n in the unnest_tokens() function, we can create trigrams (3-grams), four-grams, and so on, depending on our analysis needs.

# Creating trigrams (3-grams) from the comments
trigrams <- comments %>%
  unnest_tokens(ngrams, comments, token = "ngrams", n = 3) #trigrams
trigrams

# A tibble: 61,297 × 3
    ...1 id      ngrams                    
   <dbl> <chr>   <chr>                     
 1     1 s1_0001 everyone telling watch    
 2     1 s1_0001 telling watch severance   
 3     1 s1_0001 watch severance nobody    
 4     1 s1_0001 severance nobody tryna    
 5     1 s1_0001 nobody tryna watch        
 6     1 s1_0001 tryna watch apple         
 7     2 s1_0002 can quite explain         
 8     2 s1_0002 quite explain show        
 9     2 s1_0002 explain show severance    
10     2 s1_0002 show severance captivating
# ℹ 61,287 more rows
…
